lib/libgtkwave/test/files/vector_with_scalar_history.vcd
$date
    Tue Oct 04 07:30:00 2025
$end
$version
    gtkwave
$end
$timescale
    1 ns
$end
$scope module mysim $end
$var integer 8 ! sine_wave [7:0] $end
$upscope $end
$enddefinitions $end
#0
$dumpvars
0!
$end
#1
1!
#2
0!
#3
1!
#4
b10101010 !
#5
0!
#6
1!
#7
1!
#8
b11111111 !
#9
0!
#10
1!