lib/libgtkwave/test/files/vector_with_mixed_history.vcd
$date
    Tue Oct 04 09:00:00 2025
$end
$version
    gtkwave
$end
$timescale
    1 ns
$end
$scope module mysim $end
$var integer 8 ! sine_wave [7:0] $end
$upscope $end
$enddefinitions $end
#0
$dumpvars
b0 !
$end
#1
1!
#2
b10 !
#3
b11 !
#4
1!
#5
0!
#6
b11111111 !
#7
b0 !
#8
1!
#9
b10101010 !
#10
0!
